<font>
  <info face="visitor" size="10" bold="0" italic="0" charset="" unicode="" stretchH="100" smooth="1" aa="1" padding="5,5,5,5" spacing="0,0" outline="0"/>
  <common lineHeight="9" base="7" scaleW="52" scaleH="512" pages="1" packed="0"/>
  <pages>
    <page id="0" file="visitor.png"/>
  </pages>
  <chars count="90">
    <char id="97" x="5" y="5" width="5" height="5" xoffset="0" yoffset="2" xadvance="6" page="0" chnl="15"/>
    <char id="98" x="5" y="15" width="5" height="5" xoffset="0" yoffset="2" xadvance="6" page="0" chnl="15"/>
    <char id="99" x="5" y="25" width="5" height="5" xoffset="0" yoffset="2" xadvance="6" page="0" chnl="15"/>
    <char id="100" x="5" y="35" width="5" height="5" xoffset="0" yoffset="2" xadvance="6" page="0" chnl="15"/>
    <char id="101" x="5" y="45" width="5" height="5" xoffset="0" yoffset="2" xadvance="6" page="0" chnl="15"/>
    <char id="102" x="5" y="55" width="5" height="5" xoffset="0" yoffset="2" xadvance="6" page="0" chnl="15"/>
    <char id="103" x="5" y="65" width="5" height="5" xoffset="0" yoffset="2" xadvance="6" page="0" chnl="15"/>
    <char id="104" x="5" y="75" width="5" height="5" xoffset="0" yoffset="2" xadvance="6" page="0" chnl="15"/>
    <char id="105" x="5" y="85" width="1" height="5" xoffset="0" yoffset="2" xadvance="2" page="0" chnl="15"/>
    <char id="106" x="5" y="95" width="5" height="5" xoffset="0" yoffset="2" xadvance="6" page="0" chnl="15"/>
    <char id="107" x="11" y="85" width="5" height="5" xoffset="0" yoffset="2" xadvance="6" page="0" chnl="15"/>
    <char id="108" x="15" y="5" width="5" height="5" xoffset="0" yoffset="2" xadvance="6" page="0" chnl="15"/>
    <char id="109" x="15" y="15" width="5" height="5" xoffset="0" yoffset="2" xadvance="6" page="0" chnl="15"/>
    <char id="110" x="15" y="25" width="5" height="5" xoffset="0" yoffset="2" xadvance="6" page="0" chnl="15"/>
    <char id="111" x="15" y="35" width="5" height="5" xoffset="0" yoffset="2" xadvance="6" page="0" chnl="15"/>
    <char id="112" x="15" y="45" width="5" height="5" xoffset="0" yoffset="2" xadvance="6" page="0" chnl="15"/>
    <char id="113" x="15" y="55" width="5" height="6" xoffset="0" yoffset="2" xadvance="6" page="0" chnl="15"/>
    <char id="114" x="15" y="66" width="5" height="5" xoffset="0" yoffset="2" xadvance="6" page="0" chnl="15"/>
    <char id="115" x="5" y="105" width="5" height="5" xoffset="0" yoffset="2" xadvance="6" page="0" chnl="15"/>
    <char id="116" x="5" y="115" width="5" height="5" xoffset="0" yoffset="2" xadvance="6" page="0" chnl="15"/>
    <char id="117" x="5" y="125" width="5" height="5" xoffset="0" yoffset="2" xadvance="6" page="0" chnl="15"/>
    <char id="118" x="5" y="135" width="5" height="5" xoffset="0" yoffset="2" xadvance="6" page="0" chnl="15"/>
    <char id="119" x="5" y="145" width="5" height="5" xoffset="0" yoffset="2" xadvance="6" page="0" chnl="15"/>
    <char id="120" x="5" y="155" width="5" height="5" xoffset="0" yoffset="2" xadvance="6" page="0" chnl="15"/>
    <char id="121" x="5" y="165" width="5" height="5" xoffset="0" yoffset="2" xadvance="6" page="0" chnl="15"/>
    <char id="122" x="5" y="175" width="5" height="5" xoffset="0" yoffset="2" xadvance="6" page="0" chnl="15"/>
    <char id="65" x="5" y="185" width="5" height="5" xoffset="0" yoffset="2" xadvance="6" page="0" chnl="15"/>
    <char id="66" x="5" y="195" width="5" height="5" xoffset="0" yoffset="2" xadvance="6" page="0" chnl="15"/>
    <char id="67" x="5" y="205" width="5" height="5" xoffset="0" yoffset="2" xadvance="6" page="0" chnl="15"/>
    <char id="68" x="5" y="215" width="5" height="5" xoffset="0" yoffset="2" xadvance="6" page="0" chnl="15"/>
    <char id="69" x="5" y="225" width="5" height="5" xoffset="0" yoffset="2" xadvance="6" page="0" chnl="15"/>
    <char id="70" x="5" y="235" width="5" height="5" xoffset="0" yoffset="2" xadvance="6" page="0" chnl="15"/>
    <char id="71" x="5" y="245" width="5" height="5" xoffset="0" yoffset="2" xadvance="6" page="0" chnl="15"/>
    <char id="72" x="5" y="255" width="5" height="5" xoffset="0" yoffset="2" xadvance="6" page="0" chnl="15"/>
    <char id="73" x="5" y="265" width="5" height="5" xoffset="0" yoffset="2" xadvance="6" page="0" chnl="15"/>
    <char id="74" x="5" y="275" width="5" height="5" xoffset="0" yoffset="2" xadvance="6" page="0" chnl="15"/>
    <char id="75" x="5" y="285" width="5" height="5" xoffset="0" yoffset="2" xadvance="6" page="0" chnl="15"/>
    <char id="76" x="5" y="295" width="5" height="5" xoffset="0" yoffset="2" xadvance="6" page="0" chnl="15"/>
    <char id="77" x="5" y="305" width="5" height="5" xoffset="0" yoffset="2" xadvance="6" page="0" chnl="15"/>
    <char id="78" x="5" y="315" width="5" height="5" xoffset="0" yoffset="2" xadvance="6" page="0" chnl="15"/>
    <char id="79" x="5" y="325" width="5" height="5" xoffset="0" yoffset="2" xadvance="6" page="0" chnl="15"/>
    <char id="80" x="5" y="335" width="5" height="5" xoffset="0" yoffset="2" xadvance="6" page="0" chnl="15"/>
    <char id="81" x="5" y="345" width="5" height="6" xoffset="0" yoffset="2" xadvance="6" page="0" chnl="15"/>
    <char id="82" x="5" y="356" width="5" height="5" xoffset="0" yoffset="2" xadvance="6" page="0" chnl="15"/>
    <char id="83" x="5" y="366" width="5" height="5" xoffset="0" yoffset="2" xadvance="6" page="0" chnl="15"/>
    <char id="84" x="5" y="376" width="5" height="5" xoffset="0" yoffset="2" xadvance="6" page="0" chnl="15"/>
    <char id="85" x="5" y="386" width="5" height="5" xoffset="0" yoffset="2" xadvance="6" page="0" chnl="15"/>
    <char id="86" x="5" y="396" width="5" height="5" xoffset="0" yoffset="2" xadvance="6" page="0" chnl="15"/>
    <char id="87" x="5" y="406" width="5" height="5" xoffset="0" yoffset="2" xadvance="6" page="0" chnl="15"/>
    <char id="88" x="5" y="416" width="5" height="5" xoffset="0" yoffset="2" xadvance="6" page="0" chnl="15"/>
    <char id="89" x="5" y="426" width="5" height="5" xoffset="0" yoffset="2" xadvance="6" page="0" chnl="15"/>
    <char id="90" x="5" y="436" width="5" height="5" xoffset="0" yoffset="2" xadvance="6" page="0" chnl="15"/>
    <char id="48" x="5" y="446" width="5" height="5" xoffset="0" yoffset="2" xadvance="6" page="0" chnl="15"/>
    <char id="49" x="5" y="456" width="2" height="5" xoffset="0" yoffset="2" xadvance="3" page="0" chnl="15"/>
    <char id="50" x="5" y="466" width="5" height="5" xoffset="0" yoffset="2" xadvance="6" page="0" chnl="15"/>
    <char id="51" x="12" y="456" width="5" height="5" xoffset="0" yoffset="2" xadvance="6" page="0" chnl="15"/>
    <char id="52" x="5" y="476" width="5" height="5" xoffset="0" yoffset="2" xadvance="6" page="0" chnl="15"/>
    <char id="53" x="5" y="486" width="5" height="5" xoffset="0" yoffset="2" xadvance="6" page="0" chnl="15"/>
    <char id="54" x="5" y="496" width="5" height="5" xoffset="0" yoffset="2" xadvance="6" page="0" chnl="15"/>
    <char id="55" x="15" y="466" width="5" height="5" xoffset="0" yoffset="2" xadvance="6" page="0" chnl="15"/>
    <char id="56" x="15" y="476" width="5" height="5" xoffset="0" yoffset="2" xadvance="6" page="0" chnl="15"/>
    <char id="57" x="15" y="486" width="5" height="5" xoffset="0" yoffset="2" xadvance="6" page="0" chnl="15"/>
    <char id="33" x="15" y="496" width="1" height="5" xoffset="0" yoffset="2" xadvance="2" page="0" chnl="15"/>
    <char id="8470" x="21" y="496" width="5" height="5" xoffset="0" yoffset="2" xadvance="6" page="0" chnl="15"/>
    <char id="59" x="15" y="95" width="1" height="6" xoffset="0" yoffset="2" xadvance="2" page="0" chnl="15"/>
    <char id="37" x="15" y="106" width="5" height="5" xoffset="0" yoffset="2" xadvance="6" page="0" chnl="15"/>
    <char id="58" x="21" y="76" width="1" height="5" xoffset="0" yoffset="2" xadvance="2" page="0" chnl="15"/>
    <char id="63" x="21" y="86" width="5" height="5" xoffset="0" yoffset="2" xadvance="6" page="0" chnl="15"/>
    <char id="42" x="21" y="96" width="5" height="3" xoffset="0" yoffset="2" xadvance="6" page="0" chnl="15"/>
    <char id="40" x="25" y="5" width="2" height="5" xoffset="0" yoffset="2" xadvance="3" page="0" chnl="15"/>
    <char id="41" x="25" y="15" width="2" height="5" xoffset="0" yoffset="2" xadvance="3" page="0" chnl="15"/>
    <char id="95" x="5" y="506" width="5" height="1" xoffset="0" yoffset="8" xadvance="6" page="0" chnl="15"/>
    <char id="43" x="25" y="25" width="5" height="5" xoffset="0" yoffset="2" xadvance="6" page="0" chnl="15"/>
    <char id="45" x="15" y="506" width="3" height="1" xoffset="0" yoffset="4" xadvance="4" page="0" chnl="15"/>
    <char id="61" x="32" y="5" width="5" height="3" xoffset="0" yoffset="3" xadvance="6" page="0" chnl="15"/>
    <char id="46" x="15" y="76" width="1" height="1" xoffset="0" yoffset="6" xadvance="2" page="0" chnl="15"/>
    <char id="44" x="32" y="13" width="1" height="2" xoffset="0" yoffset="6" xadvance="2" page="0" chnl="15"/>
    <char id="47" x="25" y="35" width="5" height="5" xoffset="0" yoffset="2" xadvance="6" page="0" chnl="15"/>
    <char id="124" x="25" y="45" width="1" height="9" xoffset="0" yoffset="0" xadvance="2" page="0" chnl="15"/>
    <char id="34" x="25" y="59" width="3" height="2" xoffset="0" yoffset="2" xadvance="4" page="0" chnl="15"/>
    <char id="39" x="25" y="66" width="1" height="2" xoffset="0" yoffset="2" xadvance="2" page="0" chnl="15"/>
    <char id="64" x="27" y="73" width="5" height="5" xoffset="0" yoffset="2" xadvance="6" page="0" chnl="15"/>
    <char id="35" x="31" y="45" width="5" height="5" xoffset="0" yoffset="2" xadvance="6" page="0" chnl="15"/>
    <char id="36" x="33" y="55" width="5" height="7" xoffset="0" yoffset="1" xadvance="6" page="0" chnl="15"/>
    <char id="94" x="35" y="20" width="3" height="2" xoffset="0" yoffset="2" xadvance="4" page="0" chnl="15"/>
    <char id="38" x="42" y="5" width="5" height="7" xoffset="0" yoffset="1" xadvance="6" page="0" chnl="15"/>
    <char id="123" x="35" y="27" width="3" height="5" xoffset="0" yoffset="2" xadvance="4" page="0" chnl="15"/>
    <char id="125" x="41" y="37" width="3" height="5" xoffset="0" yoffset="2" xadvance="4" page="0" chnl="15"/>
    <char id="91" x="43" y="17" width="2" height="5" xoffset="0" yoffset="2" xadvance="3" page="0" chnl="15"/>
    <char id="93" x="43" y="27" width="2" height="5" xoffset="0" yoffset="2" xadvance="3" page="0" chnl="15"/>
    <char id="32" x="0" y="0" width="0" height="0" xoffset="0" yoffset="2" xadvance="6" page="0" chnl="15"/>
  </chars>
</font>